<?xml version="1.0" encoding="UTF-8"?>
<UndoHistory>
  <UndoTransaction tv-sec="1576956746" tv-usec="183670" name="insert file">
    <StatefulDiffCommand obj-id="212" type-name="ARDOUR::AudioPlaylist">
      <Changes>
        <Regions>
          <Add id="234"/>
        </Regions>
      </Changes>
    </StatefulDiffCommand>
    <MementoCommand obj-id="42" type-name="SelectionMemento">
      <SelectionMemento mouse-mode="MouseObject" zoom="644" left-frame="0" y-origin="0">
        <Selection/>
      </SelectionMemento>
      <SelectionMemento mouse-mode="MouseObject" zoom="644" left-frame="0" y-origin="0">
        <Selection>
          <StripableView id="170"/>
        </Selection>
      </SelectionMemento>
    </MementoCommand>
  </UndoTransaction>
  <UndoTransaction tv-sec="1576956756" tv-usec="258100" name="set loop range">
    <MementoCommand obj-id="34" type-name="ARDOUR::Locations">
      <Locations>
        <Location id="246" name="session" start="0" end="99359" flags="IsSessionRange" locked="0" position-lock-style="AudioTime"/>
      </Locations>
      <Locations>
        <Location id="246" name="session" start="0" end="99359" flags="IsSessionRange" locked="0" position-lock-style="AudioTime"/>
        <Location id="250" name="Loop" start="7084" end="45744" flags="IsAutoLoop" locked="0" position-lock-style="AudioTime"/>
      </Locations>
    </MementoCommand>
    <MementoCommand obj-id="42" type-name="SelectionMemento">
      <SelectionMemento mouse-mode="MouseObject" zoom="161" left-frame="0" y-origin="0">
        <Selection>
          <StripableView id="170"/>
        </Selection>
      </SelectionMemento>
      <SelectionMemento mouse-mode="MouseObject" zoom="161" left-frame="0" y-origin="0">
        <Selection>
          <StripableView id="170"/>
        </Selection>
      </SelectionMemento>
    </MementoCommand>
  </UndoTransaction>
  <UndoTransaction tv-sec="1576956757" tv-usec="465108" name="move marker">
    <MementoCommand obj-id="34" type-name="ARDOUR::Locations">
      <Locations>
        <Location id="246" name="session" start="0" end="99359" flags="IsSessionRange" locked="0" position-lock-style="AudioTime"/>
        <Location id="250" name="Loop" start="7084" end="45744" flags="IsAutoLoop" locked="0" position-lock-style="AudioTime"/>
      </Locations>
      <Locations>
        <Location id="246" name="session" start="0" end="99359" flags="IsSessionRange" locked="0" position-lock-style="AudioTime"/>
        <Location id="250" name="Loop" start="0" end="45744" flags="IsAutoLoop" locked="0" position-lock-style="AudioTime"/>
      </Locations>
    </MementoCommand>
    <MementoCommand obj-id="42" type-name="SelectionMemento">
      <SelectionMemento mouse-mode="MouseObject" zoom="161" left-frame="0" y-origin="0">
        <Selection>
          <Marker id="250" start="1"/>
        </Selection>
      </SelectionMemento>
      <SelectionMemento mouse-mode="MouseObject" zoom="161" left-frame="0" y-origin="0">
        <Selection>
          <Marker id="250" start="1"/>
        </Selection>
      </SelectionMemento>
    </MementoCommand>
  </UndoTransaction>
  <UndoTransaction tv-sec="1576956758" tv-usec="675536" name="move marker">
    <MementoCommand obj-id="34" type-name="ARDOUR::Locations">
      <Locations>
        <Location id="246" name="session" start="0" end="99359" flags="IsSessionRange" locked="0" position-lock-style="AudioTime"/>
        <Location id="250" name="Loop" start="0" end="45744" flags="IsAutoLoop" locked="0" position-lock-style="AudioTime"/>
      </Locations>
      <Locations>
        <Location id="246" name="session" start="0" end="99359" flags="IsSessionRange" locked="0" position-lock-style="AudioTime"/>
        <Location id="250" name="Loop" start="0" end="81808" flags="IsAutoLoop" locked="0" position-lock-style="AudioTime"/>
      </Locations>
    </MementoCommand>
    <MementoCommand obj-id="42" type-name="SelectionMemento">
      <SelectionMemento mouse-mode="MouseObject" zoom="161" left-frame="0" y-origin="0">
        <Selection>
          <Marker id="250" start="0"/>
        </Selection>
      </SelectionMemento>
      <SelectionMemento mouse-mode="MouseObject" zoom="161" left-frame="0" y-origin="0">
        <Selection>
          <Marker id="250" start="0"/>
        </Selection>
      </SelectionMemento>
    </MementoCommand>
  </UndoTransaction>
  <UndoTransaction tv-sec="1576956769" tv-usec="870886" name="Region start trim">
    <StatefulDiffCommand obj-id="234" type-name="ARDOUR::AudioRegion">
      <Changes>
        <start from="0" to="24360"/>
        <length from="99360" to="75000"/>
        <position from="0" to="24360"/>
        <beat from="0" to="1.0149999999999999"/>
        <Envelope>
          <from>
            <AutomationList automation-id="envelope" id="265" interpolation-style="Linear" state="Off">
              <events>0 1
99360 1
</events>
            </AutomationList>
          </from>
          <to>
            <AutomationList automation-id="envelope" id="266" interpolation-style="Linear" state="Off">
              <events>0 1
75000 1
</events>
            </AutomationList>
          </to>
        </Envelope>
      </Changes>
    </StatefulDiffCommand>
    <MementoCommand obj-id="42" type-name="SelectionMemento">
      <SelectionMemento mouse-mode="MouseObject" zoom="40" left-frame="0" y-origin="0">
        <Selection>
          <Regions>
            <Region id="234"/>
          </Regions>
          <Marker id="250" start="0"/>
        </Selection>
      </SelectionMemento>
      <SelectionMemento mouse-mode="MouseObject" zoom="40" left-frame="0" y-origin="0">
        <Selection>
          <Regions>
            <Region id="234"/>
          </Regions>
          <Marker id="250" start="0"/>
        </Selection>
      </SelectionMemento>
    </MementoCommand>
  </UndoTransaction>
  <UndoTransaction tv-sec="1576956778" tv-usec="902027" name="change fade in length">
    <MementoCommand obj-id="235" type-name="ARDOUR::AutomationList">
      <AutomationList automation-id="fadein" id="235" interpolation-style="Curved" state="Off">
        <events>0 1.0000000116860974e-07
64 1
</events>
      </AutomationList>
      <AutomationList automation-id="fadein" id="235" interpolation-style="Curved" state="Off">
        <events>0 1.0000000116860974e-07
960 1
</events>
      </AutomationList>
    </MementoCommand>
    <MementoCommand obj-id="42" type-name="SelectionMemento">
      <SelectionMemento mouse-mode="MouseObject" zoom="40" left-frame="0" y-origin="0">
        <Selection>
          <Regions>
            <Region id="234"/>
          </Regions>
          <Marker id="250" start="0"/>
        </Selection>
      </SelectionMemento>
      <SelectionMemento mouse-mode="MouseObject" zoom="40" left-frame="0" y-origin="0">
        <Selection>
          <Regions>
            <Region id="234"/>
          </Regions>
          <Marker id="250" start="0"/>
        </Selection>
      </SelectionMemento>
    </MementoCommand>
  </UndoTransaction>
  <UndoTransaction tv-sec="1576956786" tv-usec="562844" name="change fade out length">
    <MementoCommand obj-id="237" type-name="ARDOUR::AutomationList">
      <AutomationList automation-id="fadeout" id="237" interpolation-style="Curved" state="Off">
        <events>0 1
64 1.0000000116860974e-07
</events>
      </AutomationList>
      <AutomationList automation-id="fadeout" id="237" interpolation-style="Curved" state="Off">
        <events>0 1
64 1.0000000116860974e-07
</events>
      </AutomationList>
    </MementoCommand>
    <MementoCommand obj-id="42" type-name="SelectionMemento">
      <SelectionMemento mouse-mode="MouseObject" zoom="80" left-frame="0" y-origin="0">
        <Selection>
          <Regions>
            <Region id="234"/>
          </Regions>
          <Marker id="250" start="0"/>
        </Selection>
      </SelectionMemento>
      <SelectionMemento mouse-mode="MouseObject" zoom="80" left-frame="0" y-origin="0">
        <Selection>
          <Regions>
            <Region id="234"/>
          </Regions>
          <Marker id="250" start="0"/>
        </Selection>
      </SelectionMemento>
    </MementoCommand>
  </UndoTransaction>
  <UndoTransaction tv-sec="1576956789" tv-usec="172814" name="Region end trim">
    <StatefulDiffCommand obj-id="234" type-name="ARDOUR::AudioRegion">
      <Changes>
        <length from="75000" to="18680"/>
        <Envelope>
          <from>
            <AutomationList automation-id="envelope" id="278" interpolation-style="Linear" state="Off">
              <events>0 1
75000 1
</events>
            </AutomationList>
          </from>
          <to>
            <AutomationList automation-id="envelope" id="279" interpolation-style="Linear" state="Off">
              <events>0 1
18680 1
</events>
            </AutomationList>
          </to>
        </Envelope>
      </Changes>
    </StatefulDiffCommand>
    <MementoCommand obj-id="42" type-name="SelectionMemento">
      <SelectionMemento mouse-mode="MouseObject" zoom="80" left-frame="0" y-origin="0">
        <Selection>
          <Regions>
            <Region id="234"/>
          </Regions>
          <Marker id="250" start="0"/>
        </Selection>
      </SelectionMemento>
      <SelectionMemento mouse-mode="MouseObject" zoom="80" left-frame="0" y-origin="0">
        <Selection>
          <Regions>
            <Region id="234"/>
          </Regions>
          <Marker id="250" start="0"/>
        </Selection>
      </SelectionMemento>
    </MementoCommand>
  </UndoTransaction>
  <UndoTransaction tv-sec="1576956791" tv-usec="560647" name="change fade out length">
    <MementoCommand obj-id="237" type-name="ARDOUR::AutomationList">
      <AutomationList automation-id="fadeout" id="237" interpolation-style="Curved" state="Off">
        <events>0 1
64 1.0000000116860974e-07
</events>
      </AutomationList>
      <AutomationList automation-id="fadeout" id="237" interpolation-style="Curved" state="Off">
        <events>0 1
17719 1.0000000116860974e-07
</events>
      </AutomationList>
    </MementoCommand>
    <MementoCommand obj-id="42" type-name="SelectionMemento">
      <SelectionMemento mouse-mode="MouseObject" zoom="80" left-frame="0" y-origin="0">
        <Selection>
          <Regions>
            <Region id="234"/>
          </Regions>
          <Marker id="250" start="0"/>
        </Selection>
      </SelectionMemento>
      <SelectionMemento mouse-mode="MouseObject" zoom="80" left-frame="0" y-origin="0">
        <Selection>
          <Regions>
            <Region id="234"/>
          </Regions>
          <Marker id="250" start="0"/>
        </Selection>
      </SelectionMemento>
    </MementoCommand>
  </UndoTransaction>
  <UndoTransaction tv-sec="1576956868" tv-usec="533603" name="set fade out shape">
    <MementoCommand obj-id="237" type-name="ARDOUR::AutomationList">
      <AutomationList automation-id="fadeout" id="237" interpolation-style="Curved" state="Off">
        <events>0 1
17719 1.0000000116860974e-07
</events>
      </AutomationList>
      <AutomationList automation-id="fadeout" id="237" interpolation-style="Curved" state="Off">
        <events>0 1
553.71875 0.9875977635383606
1107.4375 0.95817607641220093
1661.15625 0.91326272487640381
2214.875 0.85512828826904297
2768.59375 0.78659647703170776
3322.3125 0.71081709861755371
3876.03125 0.63102835416793823
4429.75 0.55033236742019653
4983.46875 0.47150507569313049
5537.1875 0.39685589075088501
6090.90625 0.32814398407936096
6644.625 0.26655161380767822
7198.34375 0.21270774304866791
7752.0625 0.16675174236297607
8305.78125 0.12842296063899994
8859.5 0.097162812948226929
9413.21875 0.072217546403408051
9966.9375 0.052731521427631378
10520.65625 0.037825368344783783
11074.375 0.026655165478587151
11628.09375 0.018452888354659081
12181.8125 0.012549683451652527
12735.53125 0.0083846747875213623
13289.25 0.0055033210664987564
13842.96875 0.0035485327243804932
14396.6875 0.0022478003520518541
14950.40625 0.001398787833750248
15504.125 0.00085512787336483598
16057.84375 0.00051356526091694832
16611.5625 0.00030300192884169519
17719 1.0000002248489182e-07
</events>
      </AutomationList>
    </MementoCommand>
    <MementoCommand obj-id="42" type-name="SelectionMemento">
      <SelectionMemento mouse-mode="MouseObject" zoom="80" left-frame="0" y-origin="0">
        <Selection>
          <Regions>
            <Region id="234"/>
          </Regions>
          <Marker id="250" start="0"/>
        </Selection>
      </SelectionMemento>
      <SelectionMemento mouse-mode="MouseObject" zoom="80" left-frame="0" y-origin="0">
        <Selection>
          <Regions>
            <Region id="234"/>
          </Regions>
          <Marker id="250" start="0"/>
        </Selection>
      </SelectionMemento>
    </MementoCommand>
  </UndoTransaction>
  <UndoTransaction tv-sec="1576956879" tv-usec="382526" name="region drag">
    <StatefulDiffCommand obj-id="234" type-name="ARDOUR::AudioRegion">
      <Changes>
        <position from="24360" to="0"/>
        <beat from="1.0149999999999999" to="0"/>
      </Changes>
    </StatefulDiffCommand>
    <MementoCommand obj-id="42" type-name="SelectionMemento">
      <SelectionMemento mouse-mode="MouseObject" zoom="80" left-frame="0" y-origin="0">
        <Selection>
          <Regions>
            <Region id="234"/>
          </Regions>
          <Marker id="250" start="0"/>
        </Selection>
      </SelectionMemento>
      <SelectionMemento mouse-mode="MouseObject" zoom="80" left-frame="0" y-origin="0">
        <Selection>
          <Regions>
            <Region id="234"/>
          </Regions>
          <Marker id="250" start="0"/>
        </Selection>
      </SelectionMemento>
    </MementoCommand>
  </UndoTransaction>
  <UndoTransaction tv-sec="1576956883" tv-usec="87969" name="move marker">
    <MementoCommand obj-id="34" type-name="ARDOUR::Locations">
      <Locations>
        <Location id="246" name="session" start="0" end="99359" flags="IsSessionRange" locked="0" position-lock-style="AudioTime"/>
        <Location id="250" name="Loop" start="0" end="81808" flags="IsAutoLoop" locked="0" position-lock-style="AudioTime"/>
      </Locations>
      <Locations>
        <Location id="246" name="session" start="0" end="99359" flags="IsSessionRange" locked="0" position-lock-style="AudioTime"/>
        <Location id="250" name="Loop" start="0" end="18679" flags="IsAutoLoop" locked="0" position-lock-style="AudioTime"/>
      </Locations>
    </MementoCommand>
    <MementoCommand obj-id="42" type-name="SelectionMemento">
      <SelectionMemento mouse-mode="MouseObject" zoom="80" left-frame="0" y-origin="0">
        <Selection>
          <Regions>
            <Region id="234"/>
          </Regions>
          <Marker id="250" start="0"/>
        </Selection>
      </SelectionMemento>
      <SelectionMemento mouse-mode="MouseObject" zoom="80" left-frame="0" y-origin="0">
        <Selection>
          <Regions>
            <Region id="234"/>
          </Regions>
          <Marker id="250" start="0"/>
        </Selection>
      </SelectionMemento>
    </MementoCommand>
  </UndoTransaction>
</UndoHistory>
